IS415-GAA - In-class Exercise 7: Global and Local Measures of Spatial Association - sfdep methods
…
HCSA <- wm_idw %>% 
  mutate(local_Gi = local_gstar_perm(
    GDPPC, nb, wt, nsim = 99),
         .before = 1) %>%
  unnest(local_Gi)
HCSA

Simple feature collection with 88 features and 16 fields
Geometry type: POLYGON
Dimension:     XY
Bounding box:  xmin: 108.7831 ymin: 24.6342 xmax: 114.2544 ymax: 30.12812
Geodetic CRS:  WGS 84
# A tibble: 88 × 17
    gi_star   e_gi     var_gi  p_value p_sim p_fol…¹ skewn…² kurto…³ nb    wts  
      <dbl>  <dbl>      <dbl>    <dbl> <dbl>   <dbl>   <dbl>   <dbl> <nb>  <lis>
 1 -0.00567 0.0115 0.00000812  9.95e-1  0.82    0.41   1.03    1.23  <int> <dbl>
 2 -0.235   0.0110 0.00000581  8.14e-1  1       0.5    0.912   1.05  <int> <dbl>
 3  0.298   0.0114 0.00000776  7.65e-1  0.7     0.35   0.455  -0.732 <int> <dbl>
 4  0.145   0.0121 0.0000111   8.84e-1  0.64    0.32   0.900   0.726 <int> <dbl>
 5  0.356   0.0113 0.0000119   7.21e-1  0.64    0.32   1.08    1.31  <int> <dbl>
 6 -0.480   0.0116 0.00000706  6.31e-1  0.82    0.41   0.364  -0.676 <int> <dbl>
 7  3.66    0.0116 0.00000825  2.47e-4  0.02    0.01   0.909   0.664 <int> <dbl>
 8  2.14    0.0116 0.00000714  3.26e-2  0.16    0.08   1.13    1.48  <int> <dbl>
 9  4.55    0.0113 0.00000656  5.28e-6  0.02    0.01   1.36    4.14  <int> <dbl>
10  1.61    0.0109 0.00000341  1.08e-1  0.18    0.09   0.269  -0.396 <int> <dbl>
# … with 78 more rows, 7 more variables: NAME_2 <chr>, ID_3 <int>,
#   NAME_3 <chr>, ENGTYPE_3 <chr>, County <chr>, GDPPC <dbl>,
#   geometry <POLYGON [°]>, and abbreviated variable names ¹​p_folded_sim,
#   ²​skewness, ³​kurtosis
…
